age,location,location_type,male,female
 0,india,urban,78,81 
 1,india,urban,78,81 
 2,india,urban,78,81 
 3,india,urban,78,81 
 4,india,urban,78,81 
 5,india,urban,78,81 
 6,india,urban,78,81 
 7,india,urban,78,81 
 8,india,urban,78,81 
 9,india,urban,78,81 
 10,india,urban,78,81 
 11,india,urban,78,82 
 12,india,urban,78,82 
 13,india,urban,78,82 
 14,india,urban,78,82 
 15,india,urban,78,82 
 16,india,urban,78,82 
 17,india,urban,78,82 
 18,india,urban,78,82 
 19,india,urban,78,82 
 20,india,urban,78,82 
 21,india,urban,78,82 
 22,india,urban,78,82 
 23,india,urban,78,82 
 24,india,urban,78,82 
 25,india,urban,78,82 
 26,india,urban,78,82 
 27,india,urban,78,82 
 28,india,urban,78,82 
 29,india,urban,78,82 
 30,india,urban,78,82 
 31,india,urban,78,82 
 32,india,urban,78,82 
 33,india,urban,78,82 
 34,india,urban,78,82 
 35,india,urban,79,82 
 36,india,urban,79,82 
 37,india,urban,79,82 
 38,india,urban,79,82 
 39,india,urban,79,82 
 40,india,urban,79,82 
 41,india,urban,79,82 
 42,india,urban,79,82 
 43,india,urban,79,82 
 44,india,urban,79,82 
 45,india,urban,80,82 
 46,india,urban,80,82 
 47,india,urban,80,82 
 48,india,urban,80,82 
 49,india,urban,80,82 
 50,india,urban,80,82 
 51,india,urban,80,82 
 52,india,urban,80,82 
 53,india,urban,80,82 
 54,india,urban,80,82 
 55,india,urban,81,82 
 56,india,urban,81,83 
 57,india,urban,81,83 
 58,india,urban,81,83 
 59,india,urban,82,83 
 60,india,urban,82,83 
 61,india,urban,82,83 
 62,india,urban,83,84 
 63,india,urban,83,84 
 64,india,urban,83,84 
 65,india,urban,83,85 
 66,india,urban,84,85 
 67,india,urban,84,85 
 68,india,urban,84,85 
 69,india,urban,85,86 
 70,india,urban,85,86 
 71,india,urban,86,87 
 72,india,urban,86,87 
 73,india,urban,86,87 
 74,india,urban,86,87 
 75,india,urban,87,88 
 76,india,urban,87,88 
 77,india,urban,87,88 
 78,india,urban,89,89 
 79,india,urban,89,89 
 80,india,urban,90,90 
 81,india,urban,90,90 
 82,india,urban,90,90 
 83,india,urban,90,91 
 84,india,urban,91,91 
 85,india,urban,92,92 
 86,india,urban,92,92 
 87,india,urban,93,93 
 88,india,urban,94,94 
 89,india,urban,94,94 
 90,india,urban,95,95 
 91,india,urban,96,96 
 92,india,urban,96,96 
 93,india,urban,97,97 
 94,india,urban,98,98 
 95,india,urban,99,99 
 96,india,urban,99,99 
 97,india,urban,101,101 
 98,india,urban,102,102 
 99,india,urban,102,103 
 100,india,urban,103,104 
101,india,urban,103,104
102,india,urban,104,104
103,india,urban,105,105
104,india,urban,106,106
105,india,urban,107,107
106,india,urban,108,108
107,india,urban,109,109
108,india,urban,110,110
109,india,urban,110,110
110,india,urban,111,111
